lab1/alu_tb.vcd
$date
	Tue Apr  9 22:30:06 2019
$end
$version
	Icarus Verilog
$end
$timescale
	1ps
$end
$scope module testbench $end
$var wire 8 ! bonus_check [7:0] $end
$var wire 8 " bonus_tmp [7:0] $end
$var wire 8 # opcode_tmp [7:0] $end
$var wire 8 $ zcv_correct [7:0] $end
$var wire 1 % zero_out $end
$var wire 3 & zcv_out [2:0] $end
$var wire 32 ' result_out [31:0] $end
$var wire 32 ( result_correct [31:0] $end
$var wire 1 ) overflow_out $end
$var wire 1 * cout_out $end
$var reg 3 + bonus_in [2:0] $end
$var reg 1 , clk $end
$var reg 6 - error_count [5:0] $end
$var reg 6 . error_count_tmp [5:0] $end
$var reg 4 / operation_in [3:0] $end
$var reg 6 0 pattern_count [5:0] $end
$var reg 1 1 rst_n $end
$var reg 32 2 src1_in [31:0] $end
$var reg 32 3 src2_in [31:0] $end
$var reg 1 4 start_check $end
$scope module alu $end
$var wire 4 5 ALU_control [3:0] $end
$var wire 1 1 rst_n $end
$var wire 32 6 src1 [31:0] $end
$var wire 32 7 src2 [31:0] $end
$var wire 32 8 w_cout [31:0] $end
$var wire 1 9 set $end
$var wire 32 : result [31:0] $end
$var wire 1 ) overflow $end
$var wire 1 * cout $end
$var reg 1 % zero $end
$scope module a00 $end
$var wire 1 ; A_invert $end
$var wire 1 < B_invert $end
$var wire 1 = cin $end
$var wire 2 > operation [1:0] $end
$var wire 1 ? src1 $end
$var wire 1 @ src2 $end
$var wire 1 9 less $end
$var reg 1 A _src1 $end
$var reg 1 B _src2 $end
$var reg 1 C cout $end
$var reg 1 D result $end
$upscope $end
$scope module a01 $end
$var wire 1 E A_invert $end
$var wire 1 F B_invert $end
$var wire 1 G cin $end
$var wire 1 H less $end
$var wire 2 I operation [1:0] $end
$var wire 1 J src1 $end
$var wire 1 K src2 $end
$var reg 1 L _src1 $end
$var reg 1 M _src2 $end
$var reg 1 N cout $end
$var reg 1 O result $end
$upscope $end
$scope module a02 $end
$var wire 1 P A_invert $end
$var wire 1 Q B_invert $end
$var wire 1 R cin $end
$var wire 1 S less $end
$var wire 2 T operation [1:0] $end
$var wire 1 U src1 $end
$var wire 1 V src2 $end
$var reg 1 W _src1 $end
$var reg 1 X _src2 $end
$var reg 1 Y cout $end
$var reg 1 Z result $end
$upscope $end
$scope module a03 $end
$var wire 1 [ A_invert $end
$var wire 1 \ B_invert $end
$var wire 1 ] cin $end
$var wire 1 ^ less $end
$var wire 2 _ operation [1:0] $end
$var wire 1 ` src1 $end
$var wire 1 a src2 $end
$var reg 1 b _src1 $end
$var reg 1 c _src2 $end
$var reg 1 d cout $end
$var reg 1 e result $end
$upscope $end
$scope module a04 $end
$var wire 1 f A_invert $end
$var wire 1 g B_invert $end
$var wire 1 h cin $end
$var wire 1 i less $end
$var wire 2 j operation [1:0] $end
$var wire 1 k src1 $end
$var wire 1 l src2 $end
$var reg 1 m _src1 $end
$var reg 1 n _src2 $end
$var reg 1 o cout $end
$var reg 1 p result $end
$upscope $end
$scope module a05 $end
$var wire 1 q A_invert $end
$var wire 1 r B_invert $end
$var wire 1 s cin $end
$var wire 1 t less $end
$var wire 2 u operation [1:0] $end
$var wire 1 v src1 $end
$var wire 1 w src2 $end
$var reg 1 x _src1 $end
$var reg 1 y _src2 $end
$var reg 1 z cout $end
$var reg 1 { result $end
$upscope $end
$scope module a06 $end
$var wire 1 | A_invert $end
$var wire 1 } B_invert $end
$var wire 1 ~ cin $end
$var wire 1 !" less $end
$var wire 2 "" operation [1:0] $end
$var wire 1 #" src1 $end
$var wire 1 $" src2 $end
$var reg 1 %" _src1 $end
$var reg 1 &" _src2 $end
$var reg 1 '" cout $end
$var reg 1 (" result $end
$upscope $end
$scope module a07 $end
$var wire 1 )" A_invert $end
$var wire 1 *" B_invert $end
$var wire 1 +" cin $end
$var wire 1 ," less $end
$var wire 2 -" operation [1:0] $end
$var wire 1 ." src1 $end
$var wire 1 /" src2 $end
$var reg 1 0" _src1 $end
$var reg 1 1" _src2 $end
$var reg 1 2" cout $end
$var reg 1 3" result $end
$upscope $end
$scope module a08 $end
$var wire 1 4" A_invert $end
$var wire 1 5" B_invert $end
$var wire 1 6" cin $end
$var wire 1 7" less $end
$var wire 2 8" operation [1:0] $end
$var wire 1 9" src1 $end
$var wire 1 :" src2 $end
$var reg 1 ;" _src1 $end
$var reg 1 <" _src2 $end
$var reg 1 =" cout $end
$var reg 1 >" result $end
$upscope $end
$scope module a09 $end
$var wire 1 ?" A_invert $end
$var wire 1 @" B_invert $end
$var wire 1 A" cin $end
$var wire 1 B" less $end
$var wire 2 C" operation [1:0] $end
$var wire 1 D" src1 $end
$var wire 1 E" src2 $end
$var reg 1 F" _src1 $end
$var reg 1 G" _src2 $end
$var reg 1 H" cout $end
$var reg 1 I" result $end
$upscope $end
$scope module a10 $end
$var wire 1 J" A_invert $end
$var wire 1 K" B_invert $end
$var wire 1 L" cin $end
$var wire 1 M" less $end
$var wire 2 N" operation [1:0] $end
$var wire 1 O" src1 $end
$var wire 1 P" src2 $end
$var reg 1 Q" _src1 $end
$var reg 1 R" _src2 $end
$var reg 1 S" cout $end
$var reg 1 T" result $end
$upscope $end
$scope module a11 $end
$var wire 1 U" A_invert $end
$var wire 1 V" B_invert $end
$var wire 1 W" cin $end
$var wire 1 X" less $end
$var wire 2 Y" operation [1:0] $end
$var wire 1 Z" src1 $end
$var wire 1 [" src2 $end
$var reg 1 \" _src1 $end
$var reg 1 ]" _src2 $end
$var reg 1 ^" cout $end
$var reg 1 _" result $end
$upscope $end
$scope module a12 $end
$var wire 1 `" A_invert $end
$var wire 1 a" B_invert $end
$var wire 1 b" cin $end
$var wire 1 c" less $end
$var wire 2 d" operation [1:0] $end
$var wire 1 e" src1 $end
$var wire 1 f" src2 $end
$var reg 1 g" _src1 $end
$var reg 1 h" _src2 $end
$var reg 1 i" cout $end
$var reg 1 j" result $end
$upscope $end
$scope module a13 $end
$var wire 1 k" A_invert $end
$var wire 1 l" B_invert $end
$var wire 1 m" cin $end
$var wire 1 n" less $end
$var wire 2 o" operation [1:0] $end
$var wire 1 p" src1 $end
$var wire 1 q" src2 $end
$var reg 1 r" _src1 $end
$var reg 1 s" _src2 $end
$var reg 1 t" cout $end
$var reg 1 u" result $end
$upscope $end
$scope module a14 $end
$var wire 1 v" A_invert $end
$var wire 1 w" B_invert $end
$var wire 1 x" cin $end
$var wire 1 y" less $end
$var wire 2 z" operation [1:0] $end
$var wire 1 {" src1 $end
$var wire 1 |" src2 $end
$var reg 1 }" _src1 $end
$var reg 1 ~" _src2 $end
$var reg 1 !# cout $end
$var reg 1 "# result $end
$upscope $end
$scope module a15 $end
$var wire 1 ## A_invert $end
$var wire 1 $# B_invert $end
$var wire 1 %# cin $end
$var wire 1 &# less $end
$var wire 2 '# operation [1:0] $end
$var wire 1 (# src1 $end
$var wire 1 )# src2 $end
$var reg 1 *# _src1 $end
$var reg 1 +# _src2 $end
$var reg 1 ,# cout $end
$var reg 1 -# result $end
$upscope $end
$scope module a16 $end
$var wire 1 .# A_invert $end
$var wire 1 /# B_invert $end
$var wire 1 0# cin $end
$var wire 1 1# less $end
$var wire 2 2# operation [1:0] $end
$var wire 1 3# src1 $end
$var wire 1 4# src2 $end
$var reg 1 5# _src1 $end
$var reg 1 6# _src2 $end
$var reg 1 7# cout $end
$var reg 1 8# result $end
$upscope $end
$scope module a17 $end
$var wire 1 9# A_invert $end
$var wire 1 :# B_invert $end
$var wire 1 ;# cin $end
$var wire 1 <# less $end
$var wire 2 =# operation [1:0] $end
$var wire 1 ># src1 $end
$var wire 1 ?# src2 $end
$var reg 1 @# _src1 $end
$var reg 1 A# _src2 $end
$var reg 1 B# cout $end
$var reg 1 C# result $end
$upscope $end
$scope module a18 $end
$var wire 1 D# A_invert $end
$var wire 1 E# B_invert $end
$var wire 1 F# cin $end
$var wire 1 G# less $end
$var wire 2 H# operation [1:0] $end
$var wire 1 I# src1 $end
$var wire 1 J# src2 $end
$var reg 1 K# _src1 $end
$var reg 1 L# _src2 $end
$var reg 1 M# cout $end
$var reg 1 N# result $end
$upscope $end
$scope module a19 $end
$var wire 1 O# A_invert $end
$var wire 1 P# B_invert $end
$var wire 1 Q# cin $end
$var wire 1 R# less $end
$var wire 2 S# operation [1:0] $end
$var wire 1 T# src1 $end
$var wire 1 U# src2 $end
$var reg 1 V# _src1 $end
$var reg 1 W# _src2 $end
$var reg 1 X# cout $end
$var reg 1 Y# result $end
$upscope $end
$scope module a20 $end
$var wire 1 Z# A_invert $end
$var wire 1 [# B_invert $end
$var wire 1 \# cin $end
$var wire 1 ]# less $end
$var wire 2 ^# operation [1:0] $end
$var wire 1 _# src1 $end
$var wire 1 `# src2 $end
$var reg 1 a# _src1 $end
$var reg 1 b# _src2 $end
$var reg 1 c# cout $end
$var reg 1 d# result $end
$upscope $end
$scope module a21 $end
$var wire 1 e# A_invert $end
$var wire 1 f# B_invert $end
$var wire 1 g# cin $end
$var wire 1 h# less $end
$var wire 2 i# operation [1:0] $end
$var wire 1 j# src1 $end
$var wire 1 k# src2 $end
$var reg 1 l# _src1 $end
$var reg 1 m# _src2 $end
$var reg 1 n# cout $end
$var reg 1 o# result $end
$upscope $end
$scope module a22 $end
$var wire 1 p# A_invert $end
$var wire 1 q# B_invert $end
$var wire 1 r# cin $end
$var wire 1 s# less $end
$var wire 2 t# operation [1:0] $end
$var wire 1 u# src1 $end
$var wire 1 v# src2 $end
$var reg 1 w# _src1 $end
$var reg 1 x# _src2 $end
$var reg 1 y# cout $end
$var reg 1 z# result $end
$upscope $end
$scope module a23 $end
$var wire 1 {# A_invert $end
$var wire 1 |# B_invert $end
$var wire 1 }# cin $end
$var wire 1 ~# less $end
$var wire 2 !$ operation [1:0] $end
$var wire 1 "$ src1 $end
$var wire 1 #$ src2 $end
$var reg 1 $$ _src1 $end
$var reg 1 %$ _src2 $end
$var reg 1 &$ cout $end
$var reg 1 '$ result $end
$upscope $end
$scope module a24 $end
$var wire 1 ($ A_invert $end
$var wire 1 )$ B_invert $end
$var wire 1 *$ cin $end
$var wire 1 +$ less $end
$var wire 2 ,$ operation [1:0] $end
$var wire 1 -$ src1 $end
$var wire 1 .$ src2 $end
$var reg 1 /$ _src1 $end
$var reg 1 0$ _src2 $end
$var reg 1 1$ cout $end
$var reg 1 2$ result $end
$upscope $end
$scope module a25 $end
$var wire 1 3$ A_invert $end
$var wire 1 4$ B_invert $end
$var wire 1 5$ cin $end
$var wire 1 6$ less $end
$var wire 2 7$ operation [1:0] $end
$var wire 1 8$ src1 $end
$var wire 1 9$ src2 $end
$var reg 1 :$ _src1 $end
$var reg 1 ;$ _src2 $end
$var reg 1 <$ cout $end
$var reg 1 =$ result $end
$upscope $end
$scope module a26 $end
$var wire 1 >$ A_invert $end
$var wire 1 ?$ B_invert $end
$var wire 1 @$ cin $end
$var wire 1 A$ less $end
$var wire 2 B$ operation [1:0] $end
$var wire 1 C$ src1 $end
$var wire 1 D$ src2 $end
$var reg 1 E$ _src1 $end
$var reg 1 F$ _src2 $end
$var reg 1 G$ cout $end
$var reg 1 H$ result $end
$upscope $end
$scope module a27 $end
$var wire 1 I$ A_invert $end
$var wire 1 J$ B_invert $end
$var wire 1 K$ cin $end
$var wire 1 L$ less $end
$var wire 2 M$ operation [1:0] $end
$var wire 1 N$ src1 $end
$var wire 1 O$ src2 $end
$var reg 1 P$ _src1 $end
$var reg 1 Q$ _src2 $end
$var reg 1 R$ cout $end
$var reg 1 S$ result $end
$upscope $end
$scope module a28 $end
$var wire 1 T$ A_invert $end
$var wire 1 U$ B_invert $end
$var wire 1 V$ cin $end
$var wire 1 W$ less $end
$var wire 2 X$ operation [1:0] $end
$var wire 1 Y$ src1 $end
$var wire 1 Z$ src2 $end
$var reg 1 [$ _src1 $end
$var reg 1 \$ _src2 $end
$var reg 1 ]$ cout $end
$var reg 1 ^$ result $end
$upscope $end
$scope module a29 $end
$var wire 1 _$ A_invert $end
$var wire 1 `$ B_invert $end
$var wire 1 a$ cin $end
$var wire 1 b$ less $end
$var wire 2 c$ operation [1:0] $end
$var wire 1 d$ src1 $end
$var wire 1 e$ src2 $end
$var reg 1 f$ _src1 $end
$var reg 1 g$ _src2 $end
$var reg 1 h$ cout $end
$var reg 1 i$ result $end
$upscope $end
$scope module a30 $end
$var wire 1 j$ A_invert $end
$var wire 1 k$ B_invert $end
$var wire 1 l$ cin $end
$var wire 1 m$ less $end
$var wire 2 n$ operation [1:0] $end
$var wire 1 o$ src1 $end
$var wire 1 p$ src2 $end
$var reg 1 q$ _src1 $end
$var reg 1 r$ _src2 $end
$var reg 1 s$ cout $end
$var reg 1 t$ result $end
$upscope $end
$scope module a31 $end
$var wire 1 u$ A_invert $end
$var wire 1 v$ B_invert $end
$var wire 1 w$ cin $end
$var wire 1 x$ less $end
$var wire 2 y$ operation [1:0] $end
$var wire 1 z$ src1 $end
$var wire 1 {$ src2 $end
$var reg 1 |$ _src1 $end
$var reg 1 }$ _src2 $end
$var reg 1 * cout $end
$var reg 1 ) overflow $end
$var reg 1 ~$ result $end
$var reg 1 9 set $end
$upscope $end
$upscope $end
$upscope $end
$enddefinitions $end
#0
$dumpvars
0~$
0}$
0|$
0{$
0z$
b0 y$
0x$
0w$
0v$
0u$
0t$
0s$
0r$
0q$
0p$
0o$
b0 n$
0m$
0l$
0k$
0j$
0i$
0h$
0g$
0f$
0e$
0d$
b0 c$
0b$
0a$
0`$
0_$
0^$
0]$
0\$
0[$
0Z$
0Y$
b0 X$
0W$
0V$
0U$
0T$
0S$
0R$
0Q$
0P$
0O$
0N$
b0 M$
0L$
0K$
0J$
0I$
0H$
0G$
0F$
0E$
0D$
0C$
b0 B$
0A$
0@$
0?$
0>$
0=$
0<$
0;$
0:$
09$
08$
b0 7$
06$
05$
04$
03$
02$
01$
00$
0/$
0.$
0-$
b0 ,$
0+$
0*$
0)$
0($
0'$
0&$
0%$
0$$
0#$
0"$
b0 !$
0~#
0}#
0|#
0{#
0z#
0y#
0x#
0w#
0v#
0u#
b0 t#
0s#
0r#
0q#
0p#
0o#
0n#
0m#
0l#
0k#
0j#
b0 i#
0h#
0g#
0f#
0e#
0d#
0c#
0b#
0a#
0`#
0_#
b0 ^#
0]#
0\#
0[#
0Z#
0Y#
0X#
0W#
0V#
0U#
0T#
b0 S#
0R#
0Q#
0P#
0O#
0N#
0M#
0L#
0K#
0J#
0I#
b0 H#
0G#
0F#
0E#
0D#
0C#
0B#
0A#
0@#
0?#
0>#
b0 =#
0<#
0;#
0:#
09#
08#
07#
06#
05#
04#
03#
b0 2#
01#
00#
0/#
0.#
0-#
0,#
0+#
0*#
0)#
0(#
b0 '#
0&#
0%#
0$#
0##
0"#
0!#
0~"
0}"
0|"
0{"
b0 z"
0y"
0x"
0w"
0v"
0u"
0t"
0s"
0r"
0q"
0p"
b0 o"
0n"
0m"
0l"
0k"
0j"
0i"
0h"
0g"
0f"
0e"
b0 d"
0c"
0b"
0a"
0`"
0_"
0^"
0]"
0\"
0["
0Z"
b0 Y"
0X"
0W"
0V"
0U"
0T"
0S"
0R"
0Q"
0P"
0O"
b0 N"
0M"
0L"
0K"
0J"
0I"
0H"
0G"
0F"
0E"
0D"
b0 C"
0B"
0A"
0@"
0?"
0>"
0="
0<"
0;"
0:"
09"
b0 8"
07"
06"
05"
04"
03"
02"
01"
00"
0/"
0."
b0 -"
0,"
0+"
0*"
0)"
0("
0'"
0&"
0%"
0$"
0#"
b0 ""
0!"
0~
0}
0|
0{
0z
0y
0x
0w
0v
b0 u
0t
0s
0r
0q
0p
0o
0n
0m
0l
0k
b0 j
0i
0h
0g
0f
0e
0d
0c
0b
0a
0`
b0 _
0^
0]
0\
0[
0Z
0Y
0X
0W
0V
0U
b0 T
0S
0R
0Q
0P
0O
0N
0M
0L
0K
0J
b0 I
0H
0G
0F
0E
0D
0C
0B
0A
0@
0?
b0 >
0=
0<
0;
b0 :
09
bz0000000000000000000000000000000 8
b0 7
b0 6
b0 5
04
b0 3
b0 2
01
b0 0
b0 /
b0 .
b0 -
0,
b0 +
0*
0)
bx (
b0 '
bx00 &
x%
bx $
b1101 #
b0 "
bx !
$end
#5000
1,
#10000
0,
#15000
1,
#20000
0,
#25000
1,
#30000
0,
#35000
1,
#40000
0,
#45000
1,
#50000
0,
#55000
1,
#60000
0,
#65000
1,
#70000
0,
#75000
1,
#80000
0,
#85000
1,
#90000
0,
#95000
1,
#100000
0,
14
11
#105000
0p
0>"
0j"
08#
0d#
02$
0^$
19
1R
1]
1h
1~
1+"
16"
1L"
1W"
1b"
1x"
1%#
10#
1F#
1Q#
1\#
1r#
1}#
1*$
1@$
1K$
1V$
1l$
1w$
1O
1N
1M
1L
1Z
1Y
1X
1W
1e
1d
1c
1b
1{
1z
1y
1x
1("
1'"
1&"
1%"
13"
12"
11"
10"
1I"
1H"
1G"
1F"
1T"
1S"
1R"
1Q"
1_"
1^"
1]"
1\"
1u"
1t"
1s"
1r"
1"#
1!#
1~"
1}"
1-#
1,#
1+#
1*#
1C#
1B#
1A#
1@#
1N#
1M#
1L#
1K#
1Y#
1X#
1W#
1V#
1o#
1n#
1m#
1l#
1z#
1y#
1x#
1w#
1'$
1&$
1%$
1$$
1=$
1<$
1;$
1:$
1H$
1G$
1F$
1E$
1S$
1R$
1Q$
1P$
1i$
1h$
1g$
1f$
1t$
bz1101110111011101110111011101110 8
1s$
1r$
1q$
1~$
bx10 &
1*
1}$
1|$
b11101110111011101110111011101110 '
b11101110111011101110111011101110 :
0D
0B
0A
0n
0m
0<"
0;"
0h"
0g"
06#
05#
0b#
0a#
00$
0/$
0\$
0[$
1;
1<
1=
b1 >
1E
1F
b1 I
1P
1Q
b1 T
1[
1\
b1 _
1f
1g
b1 j
1q
1r
b1 u
1|
1}
b1 ""
1)"
1*"
b1 -"
14"
15"
b1 8"
1?"
1@"
b1 C"
1J"
1K"
b1 N"
1U"
1V"
b1 Y"
1`"
1a"
b1 d"
1k"
1l"
b1 o"
1v"
1w"
b1 z"
1##
1$#
b1 '#
1.#
1/#
b1 2#
19#
1:#
b1 =#
1D#
1E#
b1 H#
1O#
1P#
b1 S#
1Z#
1[#
b1 ^#
1e#
1f#
b1 i#
1p#
1q#
b1 t#
1{#
1|#
b1 !$
1($
1)$
b1 ,$
13$
14$
b1 7$
1>$
1?$
b1 B$
1I$
1J$
b1 M$
1T$
1U$
b1 X$
1_$
1`$
b1 c$
1j$
1k$
b1 n$
1u$
1v$
b1 y$
1@
1l
1:"
1f"
14#
1`#
1.$
1Z$
1?
1k
19"
1e"
13#
1_#
1-$
1Y$
b0 !
b0 #
b11101110111011101110111011101110 (
b0 $
b1 0
b1101 /
b1101 5
b10001000100010001000100010001 3
b10001000100010001000100010001 7
b10001000100010001000100010001 2
b10001000100010001000100010001 6
1,
#110000
0,
#115000
0p
0>"
0j"
08#
0d#
02$
0^$
0h
06"
0b"
00#
0\#
0*$
0V$
0d
02"
0^"
0,#
0X#
0&$
0R$
bx00 &
0*
0]
0+"
0W"
0%#
0Q#
0}#
0K$
0w$
0Y
0'"
0S"
0!#
0M#
0y#
0G$
0s$
0R
0~
0L"
0x"
0;#
0g#
05$
0a$
0s
0A"
0m"
0F#
0r#
0@$
0l$
0O
0N
0L
0Z
0W
0e
0b
0{
0z
0x
0("
0%"
03"
00"
0I"
0H"
0F"
0T"
0Q"
0_"
0\"
0u"
0t"
0r"
0"#
0}"
0-#
0*#
07#
15#
0c#
1a#
01$
1/$
0]$
1[$
0D
1B
0o
1n
0="
1<"
0i"
1h"
0C#
0B#
0A#
0N#
0L#
0Y#
0W#
0o#
0n#
0m#
0z#
0x#
0'$
0%$
0=$
0<$
0;$
0H$
0F$
0S$
0Q$
0i$
bz0000000000000000000000000000000 8
0h$
0g$
0t$
0r$
19
b0 '
b0 :
0~$
0}$
0;
0<
0=
b0 >
0E
0F
b0 I
0P
0Q
b0 T
0[
0\
b0 _
0f
0g
b0 j
0q
0r
b0 u
0|
0}
b0 ""
0)"
0*"
b0 -"
04"
05"
b0 8"
0?"
0@"
b0 C"
0J"
0K"
b0 N"
0U"
0V"
b0 Y"
0`"
0a"
b0 d"
0k"
0l"
b0 o"
0v"
0w"
b0 z"
0##
0$#
b0 '#
0.#
0/#
b0 2#
09#
0:#
b0 =#
0D#
0E#
b0 H#
0O#
0P#
b0 S#
0Z#
0[#
b0 ^#
0e#
0f#
b0 i#
0p#
0q#
b0 t#
0{#
0|#
b0 !$
0($
0)$
b0 ,$
03$
04$
b0 7$
0>$
0?$
b0 B$
0I$
0J$
b0 M$
0T$
0U$
b0 X$
0_$
0`$
b0 c$
0j$
0k$
b0 n$
0u$
0v$
b0 y$
1K
1V
1a
1w
1$"
1/"
1E"
1P"
1["
1q"
1|"
1)#
04#
0`#
0.$
0Z$
0?
0k
09"
0e"
1>#
1I#
1T#
1j#
1u#
1"$
18$
1C$
1N$
1d$
1o$
1z$
b1 #
b0 (
b100 $
b10 0
b0 /
b0 5
b1111111111111111 3
b1111111111111111 7
b11111111111111110000000000000000 2
b11111111111111110000000000000000 6
1,
#120000
0,
#125000
0o#
1g#
1c#
1\#
1;#
1X#
0T"
17#
1Q#
1L"
10#
1M#
0{
1H"
1,#
1F#
1s
1A"
1%#
1Z
1("
1_"
18#
1d#
12$
1^$
1i$
0B
0M
0y
0R"
0h"
0s"
1C#
1B#
1A#
1e
0c
1b
1p
1o
1m
13"
01"
10"
1>"
1="
1;"
1I"
0G"
1F"
1"#
bz0000000000111111100001100010000 8
1!#
1}"
1-#
0+#
1*#
1N#
1L#
0K#
1Y#
1W#
0V#
0l#
0w#
1'$
1%$
0$$
0:$
0E$
b111001100111111100101111011100 '
b111001100111111100101111011100 :
1S$
1Q$
0P$
0q$
09
0|$
b1 >
b1 I
b1 T
b1 _
b1 j
b1 u
b1 ""
b1 -"
b1 8"
b1 C"
b1 N"
b1 Y"
b1 d"
b1 o"
b1 z"
b1 '#
b1 2#
b1 =#
b1 H#
b1 S#
b1 ^#
b1 i#
b1 t#
b1 !$
b1 ,$
b1 7$
b1 B$
b1 M$
b1 X$
b1 c$
b1 n$
b1 y$
0@
0K
0a
0w
0/"
0E"
0P"
0f"
0q"
0)#
1?#
1J#
1U#
1#$
1O$
1`
1k
1."
19"
1D"
1{"
1(#
0I#
0T#
0j#
0u#
0"$
08$
0C$
0N$
0o$
0z$
b10 #
b111001100111111100101111011100 (
b0 $
b11 0
b1 /
b1 5
b1000100011100100100101010100 3
b1000100011100100100101010100 7
b110001000100111100001110011000 2
b110001000100111100001110011000 6
1,
#130000
0,
#135000
bx10 &
1*
1w$
1s$
1l$
1h$
0i$
1a$
0o#
1]$
0^$
1g#
1V$
1c#
1R$
0S$
1\#
1K$
1X#
1G$
1Q#
1@$
1M#
0p
0"#
1<$
1F#
1h
1x"
15$
1B#
1d
0e
0>"
1t"
11$
02$
1;#
1]
16"
1m"
1*$
0T"
17#
1Y
0Z
12"
03"
1i"
1&$
0'$
1L"
10#
1R
1+"
1b"
1}#
0{
1H"
1,#
1N
1'"
0("
1^"
0_"
1y#
1s
1A"
1%#
1G
1~
1W"
1r#
0I"
0-#
08#
0d#
1o
0n
1="
0<"
1!#
0~"
0C#
0A#
1C
1B
1A
0O
1L
0X
1W
1z
1x
0&"
1%"
1S"
1Q"
0]"
1\"
0j"
1g"
0u"
1r"
0N#
0L#
1K#
0Y#
0W#
1V#
bz1111111111111111111111111111111 8
1n#
1l#
0z#
1w#
0%$
1$$
0=$
1:$
0H$
1E$
0Q$
1P$
0t$
1q$
09
b0 '
b0 :
0~$
1|$
b10 >
b10 I
b10 T
b10 _
b10 j
b10 u
b10 ""
b10 -"
b10 8"
b10 C"
b10 N"
b10 Y"
b10 d"
b10 o"
b10 z"
b10 '#
b10 2#
b10 =#
b10 H#
b10 S#
b10 ^#
b10 i#
b10 t#
b10 !$
b10 ,$
b10 7$
b10 B$
b10 M$
b10 X$
b10 c$
b10 n$
b10 y$
1@
0V
0l
0$"
0:"
0["
0|"
0?#
0J#
0U#
0#$
0O$
1?
1J
1U
1v
1#"
1O"
1Z"
1e"
1p"
1I#
1T#
1j#
1u#
1"$
18$
1C$
1N$
1o$
1z$
b110 #
b0 (
b110 $
b100 0
b10 /
b10 5
b1 3
b1 7
b11111111111111111111111111111111 2
b11111111111111111111111111111111 6
1,
#140000
0,
#145000
0~
0z
1{
0s
00#
0Q#
0o
1p
0,#
1-#
0M#
1N#
0h
0A"
0W"
0%#
0F#
0d
1e
0="
1>"
0S"
1T"
0!#
1"#
0B#
1C#
0]
0+"
06"
0L"
0b"
0x"
0;#
0B
1O
1M
0j"
1h"
0Y#
1W#
1d#
1b#
1^$
1\$
1t$
1r$
0y
0~"
0A#
0x#
0%$
0;$
0F$
0Q$
0g$
0Y
1Z
0X
0W
1c
0b
1n
0m
0'"
0("
0&"
0%"
02"
03"
01"
00"
1<"
0;"
0H"
0I"
0G"
0F"
1R"
0Q"
0^"
0_"
0]"
0\"
0t"
1u"
0s"
0r"
1+#
0*#
bz1111111111110000001000000000011 8
07#
b1010000000101101110010100111110 '
b1010000000101101110010100111110 :
08#
06#
05#
1L#
0K#
1m#
0l#
10$
0/$
1}$
0|$
1<
1=
1F
1Q
1\
1g
1r
1}
1*"
15"
1@"
1K"
1V"
1a"
1l"
1w"
1$#
1/#
1:#
1E#
1P#
1[#
1f#
1q#
1|#
1)$
14$
1?$
1J$
1U$
1`$
1k$
1v$
1V
1w
1$"
1/"
1E"
1["
1q"
1|"
14#
1?#
1v#
1#$
19$
1D$
1O$
1e$
0U
0`
0k
0#"
0."
09"
0D"
0O"
0Z"
0p"
0(#
03#
0I#
0j#
0-$
0z$
b111 #
b1010000000101101110010100111110 (
b10 $
b101 0
b110 /
b110 5
b101110110000110110101011100101 3
b101110110000110110101011100101 7
b1111110110110100101000000100011 2
b1111110110110100101000000100011 6
1,
#150000
0,
#155000
0("
03"
0I"
0_"
0j"
08#
0Y#
1~
1%#
1F#
1]
1h
1s
1+"
16"
1A"
1L"
1W"
1b"
1x"
10#
1;#
1Q#
1D
0B
0O
1M
1h"
1W#
0d#
1b#
0^$
1\$
0t$
1r$
1z
0{
1y
1!#
0"#
1~"
1B#
0C#
1A#
0z#
1x#
0'$
1%$
0=$
1;$
0H$
1F$
0S$
1Q$
0i$
1g$
0Z
1Y
1X
1W
1d
0e
1c
1b
1o
0p
1n
1m
1'"
1&"
1%"
12"
11"
10"
1="
0>"
1<"
1;"
1H"
1G"
1F"
1S"
0T"
1R"
1Q"
1^"
1]"
1\"
0u"
1t"
1s"
1r"
1,#
0-#
1+#
1*#
17#
16#
15#
bz1111111111111111111111111111111 8
1M#
0N#
1L#
1K#
0o#
1m#
1l#
02$
10$
1/$
19
b1 '
b1 :
0~$
1}$
1|$
b11 >
b11 I
b11 T
b11 _
b11 j
b11 u
b11 ""
b11 -"
b11 8"
b11 C"
b11 N"
b11 Y"
b11 d"
b11 o"
b11 z"
b11 '#
b11 2#
b11 =#
b11 H#
b11 S#
b11 ^#
b11 i#
b11 t#
b11 !$
b11 ,$
b11 7$
b11 B$
b11 M$
b11 X$
b11 c$
b11 n$
b11 y$
0V
0w
0$"
0/"
0E"
0["
0q"
0|"
04#
0?#
0v#
0#$
09$
0D$
0O$
0e$
1U
1`
1k
1#"
1."
19"
1D"
1O"
1Z"
1p"
1(#
13#
1I#
1j#
1-$
1z$
b1100 #
b1 (
b0 $
b110 0
b111 /
b111 5
b1 3
b1 7
b11111111111111111111111111111111 2
b11111111111111111111111111111111 6
1,
#160000
0,
#165000
1B
1A
1O
1M
1L
1Z
1X
1W
1e
1c
1b
1p
1n
1m
1{
1y
1x
1("
1&"
1%"
13"
11"
10"
1>"
1<"
1;"
1I"
1G"
1F"
1T"
1R"
1Q"
1_"
1]"
1\"
1j"
1h"
1g"
1u"
1s"
1r"
1"#
1~"
1}"
1-#
1+#
1*#
18#
16#
15#
1C#
1A#
1@#
1N#
1L#
1K#
1Y#
1W#
1V#
1d#
1b#
1a#
1o#
1m#
1l#
1z#
1x#
1w#
1'$
1%$
1$$
12$
10$
1/$
1=$
1;$
1:$
1H$
1F$
1E$
1S$
1Q$
1P$
1^$
1\$
1[$
1i$
1g$
1f$
1t$
1r$
1q$
b11111111111111111111111111111111 '
b11111111111111111111111111111111 :
1~$
1}$
1|$
1;
b0 >
1E
b0 I
1P
b0 T
1[
b0 _
1f
b0 j
1q
b0 u
1|
b0 ""
1)"
b0 -"
14"
b0 8"
1?"
b0 C"
1J"
b0 N"
1U"
b0 Y"
1`"
b0 d"
1k"
b0 o"
1v"
b0 z"
1##
b0 '#
1.#
b0 2#
19#
b0 =#
1D#
b0 H#
1O#
b0 S#
1Z#
b0 ^#
1e#
b0 i#
1p#
b0 t#
1{#
b0 !$
1($
b0 ,$
13$
b0 7$
1>$
b0 B$
1I$
b0 M$
1T$
b0 X$
1_$
b0 c$
1j$
b0 n$
1u$
b0 y$
0@
0?
0J
0U
0`
0k
0v
0#"
0."
09"
0D"
0O"
0Z"
0e"
0p"
0{"
0(#
03#
0>#
0I#
0T#
0_#
0j#
0u#
0"$
0-$
08$
0C$
0N$
0Y$
0d$
0o$
0z$
bx #
bx "
b11111111111111111111111111111111 (
b111 0
b1100 /
b1100 5
b0 3
b0 7
b0 2
b0 6
1,
#170000
0,
